{
  "prepare_queue": {
    "installed": [],
    "uninstalled": []
  },
  "config_munge": {
    "files": {}
  },
  "installed_plugins": {
    "cordova-plugin-inapppurchase": {
      "PACKAGE_NAME": "pro.znau.known"
    },
    "cordova-plugin-splashscreen": {
      "PACKAGE_NAME": "pro.znau.known"
    },
    "cordova-plugin-whitelist": {
      "PACKAGE_NAME": "pro.znau.known"
    },
    "onesignal-cordova-plugin": {
      "PACKAGE_NAME": "pro.znau.known"
    },
    "cordova-admob": {
      "PACKAGE_NAME": "pro.znau.known"
    }
  },
  "dependent_plugins": {
    "cordova-plugin-backbutton": {
      "PACKAGE_NAME": "pro.znau.known"
    },
    "es6-promise-plugin": {
      "PACKAGE_NAME": "pro.znau.known"
    },
    "cordova-plugin-x-socialsharing": {
      "ANDROID_SUPPORT_V4_VERSION": "24.1.1+",
      "PACKAGE_NAME": "pro.znau.known"
    },
    "cordova-connectivity-monitor": {
      "PACKAGE_NAME": "pro.znau.known"
    },
    "cordova-play-services-version-adapter": {
      "PACKAGE_NAME": "pro.znau.known"
    }
  }
}